{
  "name": "finn-confluent",
  "version": "0.5",
  "author": "finn.no",
  "summary": "Module to install and configure Confluent (Kafka w/zookeeper, Schema Registry, REST proxy)",
  "license": "BSD",
  "source": "https://github.com/finn-no/puppet-confluent",
  "project_page": "https://github.com/finn-no/puppet-confluent",
  "issues_url": "https://github.com/finn-no/puppet-confluent/issues",
  "dependencies": [
    {"name": "puppetlabs-stdlib", "version_requirement": ">= 4.12.0" },
    {"name": "puppetlabs-inifile", "version_requirement": ">= 1.5.0" },
    {"name": "puppetlabs-apt",    "version_requirement": ">= 2.2.2" }
  ],
  "data_provider": null
}

